{
	"language":  "ru",
	"port":      8080,

	"databases": {
		"default": {
			"basename": "default",
			"user":     "root",
			"password": "",
			"filename": "database/main.sqlite"
		},
		"report": {
			"basename": "report",
			"user":     "root",
			"password": "",
			"filename": "database/report.sqlite"
		},
		"staging": {
			"basename": "staging",
			"user":     "root",
			"password": "",
			"filename": "database/staging.sqlite"
		}
	},

	"initials": {
		"supported": {
			"1": "mssql",
			"2": "mysql"
		}
	}
}
