{
	"name":        "getInstanceDBCCMemoryStatus",
	"description": "instance memory status",

	"file":        "sql/getInstanceDBCCMemoryStatus.sql",
	"primary key": [
	],
	"storage": "report",
	"savehistoryrecords": false,

	"parameters": [
	],

	"component": {
		"name": "tableRawReport"
	}
}
