{
	"name":        "GetListOfLogins",
	"description": "Get list of server logins",

	"file":        "sql/GetListOfLogins.sql",
	"primary key": [
		"ServerName",
		"LoginName"
	],
	"storage": "report",
	"savehistoryrecords": false,

	"parameters": [
	],

	"component": {
		"name": "tableRawReport"
	}
}
