{
	"name":        "GetInstanceSummaryProcesses",
	"description": "get summary about SQL server instance processes",

	"file":        "sql/GetInstanceSummaryProcesses.sql",
	"primary key": [
		"EventDateTime"
	],
	"storage": "staging",
	"savehistoryrecords": true,

	"parameters": [
	],

	"show_query_file": "sqlite/GetInstanceSummaryProcesses.hist.sql",

	"component": {
		"name": "twoDateLineReport",
		"struct": {
			"EventDateTime": {
				"source": "EventDateTime"
			},
			"EventValue": {
				"source": "NumberOfUserProcesses"
			},
			"EventValueOther": {
				"source": "NumberOfSystemProcesses"
			}
		}
	}
}
