{
	"name":        "GetDataSetReport2",
	"description": "Report: DataSets2",

	"file":        "sql/GetDataSetReport.sql",
	"primary key": [
		"Name"
	],
	"storage": "report",
	"savehistoryrecords": false,

	"parameters": [
	],

	"component": {
		"name": "tableRawReport"
	}
}
