{
	"name":        "getDate1",
	"description": "Report1: query is to get the current datetime value",

	"file":        "sql/getdate1.sql",
	"primary key": [
		"ServerName"
	],
	"storage": "report",
	"savehistoryrecords": false,

	"parameters": [
	],

	"component":   {
		"name": "tableRawReport",
		"struct": {
			"ServerName": {
				"source":      "ServerName",
				"displayName": "Server Name",
				"alignment":   "right",
				"valignment":  "bottom",
				"color":       "#fff",
				"bgcolor":     "#000"
			},
			"UserName": {
				"source": "UserName"
			},
			"EventTime": {
				"source":      "EventTime",
				"displayName": "Event Time",
				"type":        "date",
				"format":      "HH:mm:ss"
			},
			"Message": {
				"source": "Message"
			}
		}
	}
}
