{
	"name":        "GetListOfDatabases",
	"description": "Get list of Databases",

	"file":        "sql/GetListOfDatabases.sql",
	"primary key": [
		"ServerName",
		"DatabaseId"
	],
	"storage": "report",
	"savehistoryrecords": false,

	"parameters": [
	],

	"component": {
		"name": "tableRawReport",
		"struct": {
			"ServerName": {
				"source":      "ServerName",
				"displayName": "Server Name"
			},
			"DatabaseName": {
				"source":      "DatabaseName",
				"displayName": "Database Name"
			},
			"DatabaseCreationDate": {
				"source":      "DatabaseCreationDate",
				"displayName": "Creation Date",
				"type":        "date",
				"format":      "medium"
			},
			"DatabaseOwner": {
				"source":      "DatabaseOwner",
				"displayName": "Owner"
			},
			"DatabaseCollation": {
				"source":      "DatabaseCollation",
				"displayName": "Collation"
			}
		}
	}
}
