{
	"name":        "getSysDmOsWaitStats",
	"description": "os wait status",

	"file":        "sql/getSysDmOsWaitStats.sql",
	"primary key": [
		"EventTime",
		"WaitType"
	],
	"storage": "report",
	"savehistoryrecords": false,

	"parameters": [
	],

	"component": {
		"name": "tableRawReport"
	}
}
